{
    "wallpaper": "/home/juju/Images/wallpaper/volken.png",
    "special": {
        "background": "#07080C",
        "foreground": "#C3C6CB",
        "cursor": "#C3C6CB"
    },
    "colors": {
        "color0": "#07080C",
        "color1": "#1453C8",
        "color2": "#155ADB",
        "color3": "#155DE1",
        "color4": "#4673C9",
        "color5": "#4979D3",
        "color6": "#7D828C",
        "color7": "#C3C6CB",
        "color8": "#6a6a6d",
        "color9": "#1453C8",
        "color10": "#155ADB",
        "color11": "#155DE1",
        "color12": "#4673C9",
        "color13": "#4979D3",
        "color14": "#7D828C",
        "color15": "#C3C6CB"
    }
}