{
    "wallpaper": "/home/juju/Images/wallpaper/nexus.png",
    "special": {
        "background": "#000000",
        "foreground": "#FDFEFF",
        "cursor": "#FDFEFF"
    },
    "colors": {
        "color0": "#000000",
        "color1": "#7F7F80",
        "color2": "#7F8080",
        "color3": "#A1A2A2",
        "color4": "#BFC0C0",
        "color5": "#D0D1D2",
        "color6": "#E8E9EA",
        "color7": "#FDFEFF",
        "color8": "#666666",
        "color9": "#7F7F80",
        "color10": "#7F8080",
        "color11": "#A1A2A2",
        "color12": "#BFC0C0",
        "color13": "#D0D1D2",
        "color14": "#E8E9EA",
        "color15": "#FDFEFF"
    }
}