{
    "wallpaper": "/home/juju/Images/wallpaper/StpJt8b.jpg",
    "special": {
        "background": "#090A0A",
        "foreground": "#78A699",
        "cursor": "#78A699"
    },
    "colors": {
        "color0": "#090A0A",
        "color1": "#273333",
        "color2": "#3D4437",
        "color3": "#2A3E41",
        "color4": "#33494B",
        "color5": "#275E5F",
        "color6": "#4F6160",
        "color7": "#78A699",
        "color8": "#6b6c6c",
        "color9": "#273333",
        "color10": "#3D4437",
        "color11": "#2A3E41",
        "color12": "#33494B",
        "color13": "#275E5F",
        "color14": "#4F6160",
        "color15": "#78A699"
    }
}